<?xml version="1.0" encoding="UTF-8"?>
<svg width="18px" height="14px" viewBox="0 0 18 14" version="1.1" xmlns="http://www.w3.org/2000/svg" xmlns:xlink="http://www.w3.org/1999/xlink">
    <!-- Generator: Sketch 49 (51002) - http://www.bohemiancoding.com/sketch -->
    <title>check_icon_white</title>
    <desc>Created with Sketch.</desc>
    <defs></defs>
    <g id="Styleguide" stroke="none" stroke-width="1" fill="none" fill-rule="evenodd">
        <g transform="translate(-416.000000, -632.000000)" fill="#FFFFFF" id="UI_icons">
            <g transform="translate(150.000000, 527.000000)">
                <g id="Icons" transform="translate(0.000000, 87.000000)">
                    <g id="check_icon_white" transform="translate(250.000000, 0.000000)">
                        <rect id="bg" opacity="0" x="0" y="0" width="50" height="50"></rect>
                        <path d="M22.1542419,31.5877433 L21.8693541,31.872631 L16,26.0032769 L17.956085,24.0471919 L21.976404,28.0675109 L32.043915,18 L34,19.956085 L22.2612918,31.6947932 L22.1542419,31.5877433 Z" id="Check-Icon"></path>
                    </g>
                </g>
            </g>
        </g>
    </g>
</svg>