<?xml version="1.0" encoding="UTF-8"?>
<svg width="3px" height="14px" viewBox="0 0 3 14" version="1.1" xmlns="http://www.w3.org/2000/svg" xmlns:xlink="http://www.w3.org/1999/xlink">
    <!-- Generator: Sketch 49 (51002) - http://www.bohemiancoding.com/sketch -->
    <title>error</title>
    <desc>Created with Sketch.</desc>
    <defs></defs>
    <g id="Styleguide" stroke="none" stroke-width="1" fill="none" fill-rule="evenodd">
        <g transform="translate(-374.000000, -632.000000)" fill="#FFFFFF" id="UI_icons">
            <g transform="translate(150.000000, 527.000000)">
                <g id="Icons" transform="translate(0.000000, 87.000000)">
                    <g id="error" transform="translate(200.000000, 0.000000)">
                        <rect id="bg" opacity="0" x="0" y="0" width="50" height="50"></rect>
                        <path d="M26.97,18 L26.97,23.4824281 C26.97,24.0702905 26.9324486,24.6533517 26.8573448,25.2316294 C26.782241,25.809907 26.683242,26.399358 26.5603448,27 L24.4096552,27 C24.286758,26.399358 24.187759,25.809907 24.1126552,25.2316294 C24.0375513,24.6533517 24,24.0702905 24,23.4824281 L24,18 L26.97,18 Z M24,30.5 C24,30.2894726 24.0383519,30.0935682 24.1150568,29.9122807 C24.1917617,29.7309932 24.2968743,29.5731001 24.4303977,29.4385965 C24.5639211,29.3040929 24.72159,29.1973688 24.9034091,29.1184211 C25.0852282,29.0394733 25.2840898,29 25.5,29 C25.7102283,29 25.9062491,29.0394733 26.0880682,29.1184211 C26.2698873,29.1973688 26.4289766,29.3040929 26.5653409,29.4385965 C26.7017052,29.5731001 26.8082383,29.7309932 26.8849432,29.9122807 C26.9616481,30.0935682 27,30.2894726 27,30.5 C27,30.7105274 26.9616481,30.9078938 26.8849432,31.0921053 C26.8082383,31.2763167 26.7017052,31.4356718 26.5653409,31.5701754 C26.4289766,31.704679 26.2698873,31.8099411 26.0880682,31.8859649 C25.9062491,31.9619887 25.7102283,32 25.5,32 C25.2840898,32 25.0852282,31.9619887 24.9034091,31.8859649 C24.72159,31.8099411 24.5639211,31.704679 24.4303977,31.5701754 C24.2968743,31.4356718 24.1917617,31.2763167 24.1150568,31.0921053 C24.0383519,30.9078938 24,30.7105274 24,30.5 L24,30.5 Z"></path>
                    </g>
                </g>
            </g>
        </g>
    </g>
</svg>