<?xml version="1.0" encoding="UTF-8"?>
<svg width="32px" height="32px" viewBox="0 0 32 32" version="1.1" xmlns="http://www.w3.org/2000/svg" xmlns:xlink="http://www.w3.org/1999/xlink">
    <!-- Generator: Sketch 49 (51002) - http://www.bohemiancoding.com/sketch -->
    <title>logo</title>
    <desc>Created with Sketch.</desc>
    <defs></defs>
    <g id="Styleguide" stroke="none" stroke-width="1" fill="none" fill-rule="evenodd">
        <g transform="translate(-159.000000, -623.000000)" fill="#FFFFFF" id="UI_icons">
            <g transform="translate(150.000000, 527.000000)">
                <g id="Icons" transform="translate(0.000000, 87.000000)">
                    <g id="logo">
                        <rect id="bg" opacity="0" x="0" y="0" width="50" height="50"></rect>
                        <polyline id="Logo" points="15.3993966 41 9 34.6012068 34.6006034 9 41 15.4018101 15.3993966 41"></polyline>
                    </g>
                </g>
            </g>
        </g>
    </g>
</svg>