<?xml version="1.0" encoding="UTF-8"?>
<svg width="24px" height="22px" viewBox="0 0 24 22" version="1.1" xmlns="http://www.w3.org/2000/svg" xmlns:xlink="http://www.w3.org/1999/xlink">
    <!-- Generator: Sketch 49 (51002) - http://www.bohemiancoding.com/sketch -->
    <title>menu_</title>
    <desc>Created with Sketch.</desc>
    <defs></defs>
    <g id="Styleguide" stroke="none" stroke-width="1" fill="none" fill-rule="evenodd">
        <g transform="translate(-163.000000, -728.000000)" id="UI_icons">
            <g transform="translate(150.000000, 527.000000)">
                <g id="Icons" transform="translate(0.000000, 87.000000)">
                    <g id="menu_" transform="translate(0.000000, 100.000000)">
                        <rect id="bg" fill="#FFFFFF" opacity="0" x="0" y="0" width="50" height="50"></rect>
                        <path d="M13,14 L37,14 L37,17 L13,17 L13,14 Z M13,23.5 L37,23.5 L37,26.5 L13,26.5 L13,23.5 Z M13,32.5 L37,32.5 L37,35.5 L13,35.5 L13,32.5 Z" fill="#FD5454"></path>
                    </g>
                </g>
            </g>
        </g>
    </g>
</svg>